{
    "mqttServer": "iot.thenewgym.vn",
    "mqttPort": 3214,
    "mqttUsername":  "hvt",
    "mqttPassword": "hvt",
    "mqttClientId": "hvt",
    "unlockDelayButton": 5000,
    "unlockDelayMQTT": 5000
}